0001-Fix-boost-ICU-support.patch a2cd0fd0de05b59016b20030dcfe03f77b38ac2c
boost-accumulators f9dc8486ad1932a85e22b211c921a3df35ef9c36
boost-algorithm 5680344b1ad7fbad90d155e7709a6ab720259642
boost-align 7a69c8e044fb81c8573835d3b5e480ee6a56195a
boost-any e2862ea3c01c5bf553b2482f07073c831d250c78
boost-array 0fe5755ba497a0825fc052599ad9ba06200f56cc
boost-asio 1597ec9ea83d01f21444e0f42728b4a0673fbcd1
boost-assert f0164d81d34d5445011c42ba83338e0a994480de
boost-assign 0cb9a29d851121360d931fd3570eb5da01506a44
boost-atomic 7de7ce6a65cfd91106196546225bbb6af57a52eb
boost-beast be3b93a453b19d6dbd683d98cfedf5a334bc49da
boost-bimap 9a5d8ba626c1a9b3415bd1f859f1eb8b1002d7b2
boost-bind 6d3253ed173f6db9c8944b13404a4e6d8b193730
boost-callable-traits ee7f3676b93d036800fb41574cd2fffa982e7852
boost-chrono baaff62ca8526b57b579c69e1c6909d6ae991a92
boost-circular-buffer 0c4b02cbe945273f579d185d7510441ac1ad52a4
boost-compatibility b8c066dd12592d501582c3fa90d40696203b78d9
boost-compute 55de33983fb5ab96089d321b09ccf3318f99ab0e
boost-concept-check 213ae8b7fab2ebc085daa4c30686a4b1ef9399ba
boost-config 20cb5b4d1e7456b3d2a769884917011c84bf3510
boost-container b71bf5e18c4917e3dca60d400288e866df8ed69d
boost-container-hash 655e70dba9df526383dc31c2807e4ccb934102a4
boost-context 7853ca678afec4a54251e9bc8598186a3766f623
boost-contract 0b58a4cc9357ad4804896e2e6bb169c65560b1a6
boost-conversion 6cb6cdc352697482cf2133ce869ba09c6b2c51b6
boost-convert 08ee11e84d5fdf19089a9490aafe7ccae1f2e28e
boost-core 5b621ead1d346332e9fb85a7c3d9a427a42dd19e
boost-coroutine 1c2c2c81a2234d4e578526f9ce49211c041da112
boost-coroutine2 784dc6ea8fd4a2ebfd8fbc5169581a2828d5b6b1
boost-crc 7ba80374a9abfca9534b3a8cd129ffd534b8ec84
boost-date-time c479cd8d29826a326a5c1471389b16d117e7e002
boost-detail 6f4d9b93ca309167fb6dc5f70a1f8ffd5da2442f
boost-dll 63c43a048d000f34ff68b6065d601398422a7786
boost-dynamic-bitset 12bd06d904a1b5a16a5108d7b14df5b75e5c6ea4
boost-endian 2f42077a2769be2c1d746c52c8e7baa4664a8c3b
boost-exception cb9aa7bbc649ac4c71505f51b211f69d2bd12580
boost-fiber 109d3bde2759ca2f8950cbf6f4e81c5459554809
boost-filesystem 9aa29307e54631cb86c92fa8c16027c326e3ee92
boost-flyweight b4da011239f129b424252cb4ccd61674db54a1b6
boost-foreach 7efb5250172cf136f8f1dd8e5ca352d537501e7c
boost-format 466ad5bb63851e67291e9cf9bb0ca27ac3280f07
boost-function 5af81eef03a975beb952a35ec09a061f839fafaa
boost-function-types d785f503c0f0a312eeadf382fb8cb3359aa79155
boost-functional 041cbb6e6668e88ef4303df89ff21bc06d7a2114
boost-fusion 9882310eed0ff85565b35a755e3ef80f2dbd2758
boost-geometry 3df29d3347a51b4305a22c721fc7fbad81a1c1ee
boost-gil d06594ab92d14e59f1136d9165df5a6aa535f422
boost-graph 1cb057ae1590534d05e976fab7f865e7a4f65ff5
boost-graph-parallel ef13625489fbbd04958dc5d5823d7e00dd306899
boost-hana 2c6f05988efad5b2fef79f4224e3a46426bcf07c
boost-heap 05f668833eda0a75b6db6135204e2361666f618d
boost-histogram c8e8d2334ed976fe270c7af5f350d87ee4e9e87e
boost-hof 71c67382f1730d7e5e290ebbd5092273a155144f
boost-icl 1574313746e61a4c3afbf603f0b6de115e22f4cf
boost-integer 6b8d4d12a8277a3c683643397afa14a29e2de1cd
boost-interprocess 77760ee4d4c5f17712e7c84bfc823e93118efa9b
boost-interval 1446d87eb5b7f5a94b56ae2d229c5e3c593e19b3
boost-intrusive 297d3abf34f43b3118f02fde652b471e292bc6f4
boost-io eddded87e05b015bcb25ea9dc22b0c2d9e4c951f
boost-iostreams 162bcab76a42cf5ee5dfb9a3594d42ce0eb7a07e
boost-iterator fddea7c600d3de2090f1e176e21b6a1ee8cd1511
boost-json c33df8e4908fff0dc1942ce25a95c4e28fc5f4ec
boost-lambda fb7039591b87db597a2c3f84cf28f85f7ba68dc9
boost-leaf 5c4d933494caf20ac1c1195f028fc860a044427f
boost-lexical-cast b743cde779f3ba2127edf6a0e28f8f2d975e1cba
boost-local-function 90fdf5ec848f01aac4da5f0beff542ad84695540
boost-locale 6b7d18efee8b6935a6a9cc35373a403128a41a2c
boost-lockfree 8000d489b3326e6d1bede5af51bb06310e95f51a
boost-log 55d4a5f14ed0b36cdb76b691d47421b0ab15ba5d
boost-logic e2e2bd918d037fd808b295120f474357fbca0bba
boost-math e978ea52f81dfea0c6b574efd1edf8a2705d3373
boost-metaparse 718f2c2de256c8dc7f19dc80fe49d82a33e0c17f
boost-move deec5e9edf50367896d76640d76a0cad2b46daa0
boost-mp11 6ecbfe70295f55f84a4c84588a3758fee51863cf
boost-mpl 65735cad3dbedf8253842731ec931d149995df8c
boost-msm 0fa9d5d1907537b74ae264657dc7b911486a4201
boost-multi-array 5e0522b4b3b3b1b05b161b1faa342bb57e42a99a
boost-multi-index cebe4152688bae4062410420e45e7dc1f6797764
boost-multiprecision b3b6e51b4727e6fccdaf4e4a70b2d90897a70d21
boost-nowide fd0b2f3429833aa1c109724a4ac73373d673d672
boost-numeric-conversion 813b598307a8e5631bb70040e3e4551885530195
boost-odeint 51ba6d963ce4cdacbdacb99cc03cf724ee522323
boost-optional 05f0fbf3d961680d3beeceaae32af5968d3a62f0
boost-outcome 75d8f7e76fc88accec097b0628c3c1951a713439
boost-parameter 1629a208d7811508f1161a38dbe8219c95f70e4f
boost-parameter-python c10e6bb10e957a6bd60e7dcdb5e8196a413e1bb3
boost-pfr 71465a9f3b770869bd6e39d9e53b0836dab48235
boost-phoenix c383c648f5d73c9fdc4a7ef87c414a0434e6cfd6
boost-poly-collection f9d8063c3d722418d8b705a8a53fdb74bd99cf25
boost-polygon 8db256f566bc22d66be613af2c37f7de1bd7ec65
boost-pool 405057bdb1761b6cce9cb5bde9fee8f4ad651580
boost-predef 57c0543418892291c31f07874227c9a533abc3c7
boost-preprocessor 37b102307036e11c67a31b1e33f4251cf64c80d2
boost-process 553ad9f6b9488d91779a8eb58c0441729351363a
boost-program-options 5c7a87a91cd690a9c2e39cf4f4a01812f85dd017
boost-property-map b9068a04c01cfc566c0b83abe08b33c50f7f9522
boost-property-tree 1e460c1ec1ec3844e3718c738fee5a7b2f2d3c7d
boost-proto bf4ea4cd45a1bd93440b08e80eebcd2c13bf2bae
boost-ptr-container e6cf0138b463fd0ab6152e8528cc169bd0d3204f
boost-python d2e29cd535a61da7313ad7d777c64263312eca58
boost-qvm dfc618e3ddf282cfc44bf0f6b8817a8e9eb62ad9
boost-random 283ddbb7dcac1e895c5bbf8470ba6298560b00ff
boost-range e92397b37298c9ee70634b184df677d61609ce6d
boost-ratio f1040548439fc8ca3ab1a35df78e4f3bc4632108
boost-rational 27fade1f10511c1e2157fd68dd988c31f2f87d8f
boost-regex f4135aab1d34ad04fb708804614a4dd894b6cd6f
boost-safe-numerics 6ae0748d0621b8c23908fc279dbea5a466bb7f7c
boost-scope-exit 9c1da50673c1f9e41a6f440dfb99035cb8261c5a
boost-serialization 32c1568f02c7ac9da8f34c29823c0914c3e6fee8
boost-signals2 4138687c92dca81e4fea21d866fc96e3283a4159
boost-smart-ptr 383b9a35fd0bfb02b53c2e9418ab8d65a1425fcf
boost-sort bcf9ddf0ec2ece180ad4dbf639dd6929013d03cc
boost-spirit 9dbc119f2c3ebf80d7e15cb394186c0fc9cb78b6
boost-stacktrace 2f2b2e67303fcfbaba9b18735d8a3c218f7bb2ee
boost-statechart e13494afaae137e27afe1dfa9e1c5bbf3ecac668
boost-static-assert 9e3b351365925913118fbf9d59c082033cd3392b
boost-static-string 0fcaad009e2b1992f6c121a886bed6b7f7133b0d
boost-stl-interfaces 2a8191b5e5660bd4a6cf62be74ff8ebbf7a91ea6
boost-system 45258459330650d51073e376b4ee63c7daaf486a
boost-test 78ef688d03d451a02f8a60dad149cc62a8693849
boost-thread ecb2b763e171dc796ccd00dbe26b9bc41dad7fa2
boost-throw-exception 4d2d23bdb9e2ecb9531ea2c0c487af666626d37f
boost-timer 5f5ffdcd73e779eceb6fde3e257f1276dbe03218
boost-tokenizer bd2aa9dfa30f5d6deb3107a3f850085dc08b2478
boost-tti 4cf3db68503dd169fe8431e41097b3516339aece
boost-tuple 3643db0af4570873eb3a192829ff1b289069a048
boost-type-erasure 96b58e0b8205ea1701148a11ed33e78e8bce6c5b
boost-type-index 1abd292c37cbbee24d96674326acee9bd15178c6
boost-type-traits 66409d9ca8e2e00de09f6d288d854ff5e8e31d58
boost-typeof 8e1eccb5d142b960a626a2092d60285a3b7575fb
boost-ublas 9624b9a0080fb00b73bc95c4919dd2d417f6e82c
boost-units 9672997e7c82404dcf90cc1390195bd1c48cad74
boost-unordered 1e71c4c6d99184aa4c37929b287718a9c18d8bcb
boost-utility b6ff9991bc3dcf6748fc4136c4ad1c6d993d27d4
boost-uuid dbf755e82bd4b3eb77b3137c55d2771f09f74517
boost-variant 64497a5017ddafbdef1fc7ce3d3f652e9e48bcd6
boost-variant2 bf7e15f2fad5db0de7414dbf2243a3094cd8b746
boost-vmd 584f3924c8f3e43a81a33532d1ef29dce936ea03
boost-wave 31dda4b3222a7c3d3dbaca01b61f761a20b9ecfa
boost-winapi 91c0d52f9bf61898b9e6aaaebd7730bf4d8585bb
boost-xpressive 9d8cd1c564b1d2180e5325d93e88aaac262a4f85
boost-yap a208b8bf8b0b30e7a5cb6f1258197170f74d3970
cmake 3.20.2
features core
portfile.cmake c9594fbc299160fef8338ab8f2bb74f8185694f5
ports.cmake bd8d6584852d3c42c455b6794fc31eb6a4f0914a
post_build_checks 2
powershell 7.1.3
triplet x86-windows
triplet_abi 4c64db251cbf53c76a606595b52416ec991ab5bb-a1c0eabb0c5177b6a8fb97a58ae398880c47b352-d8c1982fc772c9b47c816273e96145953dc4d7ea
usage e40ab0c6357592245cd71d0f0955d6e71b69f800
user-config.jam 0089639e9c88dac7e49ba1e57f72df5837d77d02
user-config.jam d95b4e5df155ca08f78ce582bfa423ae53b3fc2b
vcpkg.json 6d1b257f2bea5cd9bb67975cc0838d87478677a6
