boost-any e2862ea3c01c5bf553b2482f07073c831d250c78
boost-assert f0164d81d34d5445011c42ba83338e0a994480de
boost-build a27114355e362c0276e0289688573226dbdbf1ed
boost-config 20cb5b4d1e7456b3d2a769884917011c84bf3510
boost-core 5b621ead1d346332e9fb85a7c3d9a427a42dd19e
boost-detail 6f4d9b93ca309167fb6dc5f70a1f8ffd5da2442f
boost-exception cb9aa7bbc649ac4c71505f51b211f69d2bd12580
boost-function 5af81eef03a975beb952a35ec09a061f839fafaa
boost-function-types d785f503c0f0a312eeadf382fb8cb3359aa79155
boost-modular-build-helper f14e029d4056c0e90bfeb8c292ca361fb6bde022
boost-mpl 65735cad3dbedf8253842731ec931d149995df8c
boost-optional 05f0fbf3d961680d3beeceaae32af5968d3a62f0
boost-preprocessor 37b102307036e11c67a31b1e33f4251cf64c80d2
boost-smart-ptr 383b9a35fd0bfb02b53c2e9418ab8d65a1425fcf
boost-static-assert 9e3b351365925913118fbf9d59c082033cd3392b
boost-thread ecb2b763e171dc796ccd00dbe26b9bc41dad7fa2
boost-type-traits 66409d9ca8e2e00de09f6d288d854ff5e8e31d58
boost-typeof 8e1eccb5d142b960a626a2092d60285a3b7575fb
boost-utility b6ff9991bc3dcf6748fc4136c4ad1c6d993d27d4
boost-vcpkg-helpers 2d54b6d10f1dc434d4c1ffdf6ffecb250df51316
cmake 3.20.2
features core
portfile.cmake e2372b735b0c6246e5da7177342d4b9ab6b3d9a6
ports.cmake bd8d6584852d3c42c455b6794fc31eb6a4f0914a
post_build_checks 2
powershell 7.1.3
triplet x86-windows
triplet_abi 4c64db251cbf53c76a606595b52416ec991ab5bb-a1c0eabb0c5177b6a8fb97a58ae398880c47b352-d8c1982fc772c9b47c816273e96145953dc4d7ea
vcpkg.json 99e6255f5a08fca0868024c9839d637fb6d1908d
vcpkg_from_git 99e83c6ffac2dd07afaf73d795988ca5dec2dc8b
vcpkg_from_github a9dd1453b8873c9702731c6c36e79fb0ab6ae486
