boost-assert f0164d81d34d5445011c42ba83338e0a994480de
boost-config 20cb5b4d1e7456b3d2a769884917011c84bf3510
boost-core 5b621ead1d346332e9fb85a7c3d9a427a42dd19e
boost-integer 6b8d4d12a8277a3c683643397afa14a29e2de1cd
boost-static-assert 9e3b351365925913118fbf9d59c082033cd3392b
boost-utility b6ff9991bc3dcf6748fc4136c4ad1c6d993d27d4
boost-vcpkg-helpers 2d54b6d10f1dc434d4c1ffdf6ffecb250df51316
boost-winapi 91c0d52f9bf61898b9e6aaaebd7730bf4d8585bb
cmake 3.20.2
features core
portfile.cmake b823694cee00b71029275c83c749e0cd7b295727
ports.cmake bd8d6584852d3c42c455b6794fc31eb6a4f0914a
post_build_checks 2
powershell 7.1.3
triplet x86-windows
triplet_abi 4c64db251cbf53c76a606595b52416ec991ab5bb-a1c0eabb0c5177b6a8fb97a58ae398880c47b352-d8c1982fc772c9b47c816273e96145953dc4d7ea
vcpkg.json e3b269601c5ff746a73e8a97536f59ae6742c07b
vcpkg_from_git 99e83c6ffac2dd07afaf73d795988ca5dec2dc8b
vcpkg_from_github a9dd1453b8873c9702731c6c36e79fb0ab6ae486
