boost-array 0fe5755ba497a0825fc052599ad9ba06200f56cc
boost-config 20cb5b4d1e7456b3d2a769884917011c84bf3510
boost-detail 6f4d9b93ca309167fb6dc5f70a1f8ffd5da2442f
boost-move deec5e9edf50367896d76640d76a0cad2b46daa0
boost-mpl 65735cad3dbedf8253842731ec931d149995df8c
boost-preprocessor 37b102307036e11c67a31b1e33f4251cf64c80d2
boost-ptr-container e6cf0138b463fd0ab6152e8528cc169bd0d3204f
boost-range e92397b37298c9ee70634b184df677d61609ce6d
boost-static-assert 9e3b351365925913118fbf9d59c082033cd3392b
boost-throw-exception 4d2d23bdb9e2ecb9531ea2c0c487af666626d37f
boost-tuple 3643db0af4570873eb3a192829ff1b289069a048
boost-type-traits 66409d9ca8e2e00de09f6d288d854ff5e8e31d58
boost-utility b6ff9991bc3dcf6748fc4136c4ad1c6d993d27d4
boost-vcpkg-helpers 2d54b6d10f1dc434d4c1ffdf6ffecb250df51316
cmake 3.20.2
features core
portfile.cmake e1ac8c817bb18b16a6e3fac8f78a51d819c01081
ports.cmake bd8d6584852d3c42c455b6794fc31eb6a4f0914a
post_build_checks 2
powershell 7.1.3
triplet x86-windows
triplet_abi 4c64db251cbf53c76a606595b52416ec991ab5bb-a1c0eabb0c5177b6a8fb97a58ae398880c47b352-d8c1982fc772c9b47c816273e96145953dc4d7ea
vcpkg.json 79a46771ede59cc221e67ce13a9998f1e341140e
vcpkg_from_git 99e83c6ffac2dd07afaf73d795988ca5dec2dc8b
vcpkg_from_github a9dd1453b8873c9702731c6c36e79fb0ab6ae486
