CMakeLists.txt b7276834bdb0e1099d7856762841982a726a030f
Removeseekpos.patch 953df7baca408f1a627d8a48cfdc50ad05a51213
boost-assert f0164d81d34d5445011c42ba83338e0a994480de
boost-build a27114355e362c0276e0289688573226dbdbf1ed
boost-config 20cb5b4d1e7456b3d2a769884917011c84bf3510
boost-core 5b621ead1d346332e9fb85a7c3d9a427a42dd19e
boost-detail 6f4d9b93ca309167fb6dc5f70a1f8ffd5da2442f
boost-function 5af81eef03a975beb952a35ec09a061f839fafaa
boost-integer 6b8d4d12a8277a3c683643397afa14a29e2de1cd
boost-modular-build-helper f14e029d4056c0e90bfeb8c292ca361fb6bde022
boost-mpl 65735cad3dbedf8253842731ec931d149995df8c
boost-numeric-conversion 813b598307a8e5631bb70040e3e4551885530195
boost-preprocessor 37b102307036e11c67a31b1e33f4251cf64c80d2
boost-range e92397b37298c9ee70634b184df677d61609ce6d
boost-regex f4135aab1d34ad04fb708804614a4dd894b6cd6f
boost-smart-ptr 383b9a35fd0bfb02b53c2e9418ab8d65a1425fcf
boost-static-assert 9e3b351365925913118fbf9d59c082033cd3392b
boost-throw-exception 4d2d23bdb9e2ecb9531ea2c0c487af666626d37f
boost-type-traits 66409d9ca8e2e00de09f6d288d854ff5e8e31d58
boost-utility b6ff9991bc3dcf6748fc4136c4ad1c6d993d27d4
boost-vcpkg-helpers 2d54b6d10f1dc434d4c1ffdf6ffecb250df51316
bzip2 d2cc08d41fdca03414bde6fd84a3b61784b7dba0
cmake 3.20.2
features core
liblzma d209d6d666f44a7af639fd02ffe1605156fc7005
portfile.cmake 80debd09c1045c9eb768d003ea88ceecc22353c1
ports.cmake bd8d6584852d3c42c455b6794fc31eb6a4f0914a
post_build_checks 2
powershell 7.1.3
triplet x86-windows
triplet_abi 4c64db251cbf53c76a606595b52416ec991ab5bb-a1c0eabb0c5177b6a8fb97a58ae398880c47b352-d8c1982fc772c9b47c816273e96145953dc4d7ea
vcpkg.json daa142b76b0a90e62c0e21108defc00fa1083c06
vcpkg_from_git 99e83c6ffac2dd07afaf73d795988ca5dec2dc8b
vcpkg_from_github a9dd1453b8873c9702731c6c36e79fb0ab6ae486
zlib b24442d3596106c97034099167291ae73f7328b0
zstd 884f864a6ae3b52fb58243fc488fc816a4f88d9b
