boost-any e2862ea3c01c5bf553b2482f07073c831d250c78
boost-bind 6d3253ed173f6db9c8944b13404a4e6d8b193730
boost-build a27114355e362c0276e0289688573226dbdbf1ed
boost-compatibility b8c066dd12592d501582c3fa90d40696203b78d9
boost-config 20cb5b4d1e7456b3d2a769884917011c84bf3510
boost-core 5b621ead1d346332e9fb85a7c3d9a427a42dd19e
boost-detail 6f4d9b93ca309167fb6dc5f70a1f8ffd5da2442f
boost-function 5af81eef03a975beb952a35ec09a061f839fafaa
boost-iterator fddea7c600d3de2090f1e176e21b6a1ee8cd1511
boost-lexical-cast b743cde779f3ba2127edf6a0e28f8f2d975e1cba
boost-math e978ea52f81dfea0c6b574efd1edf8a2705d3373
boost-modular-build-helper f14e029d4056c0e90bfeb8c292ca361fb6bde022
boost-smart-ptr 383b9a35fd0bfb02b53c2e9418ab8d65a1425fcf
boost-static-assert 9e3b351365925913118fbf9d59c082033cd3392b
boost-throw-exception 4d2d23bdb9e2ecb9531ea2c0c487af666626d37f
boost-tokenizer bd2aa9dfa30f5d6deb3107a3f850085dc08b2478
boost-type-traits 66409d9ca8e2e00de09f6d288d854ff5e8e31d58
boost-vcpkg-helpers 2d54b6d10f1dc434d4c1ffdf6ffecb250df51316
cmake 3.20.2
features core
portfile.cmake ed68e70ad2930fd81187e073176ab7bf891e6e3c
ports.cmake bd8d6584852d3c42c455b6794fc31eb6a4f0914a
post_build_checks 2
powershell 7.1.3
triplet x86-windows
triplet_abi 4c64db251cbf53c76a606595b52416ec991ab5bb-a1c0eabb0c5177b6a8fb97a58ae398880c47b352-d8c1982fc772c9b47c816273e96145953dc4d7ea
vcpkg.json 186bf056dd8682156826471a7dcfe641ffbb1336
vcpkg_from_git 99e83c6ffac2dd07afaf73d795988ca5dec2dc8b
vcpkg_from_github a9dd1453b8873c9702731c6c36e79fb0ab6ae486
