boost-algorithm 5680344b1ad7fbad90d155e7709a6ab720259642
boost-asio 1597ec9ea83d01f21444e0f42728b4a0673fbcd1
boost-config 20cb5b4d1e7456b3d2a769884917011c84bf3510
boost-core 5b621ead1d346332e9fb85a7c3d9a427a42dd19e
boost-filesystem 9aa29307e54631cb86c92fa8c16027c326e3ee92
boost-fusion 9882310eed0ff85565b35a755e3ef80f2dbd2758
boost-iterator fddea7c600d3de2090f1e176e21b6a1ee8cd1511
boost-move deec5e9edf50367896d76640d76a0cad2b46daa0
boost-optional 05f0fbf3d961680d3beeceaae32af5968d3a62f0
boost-system 45258459330650d51073e376b4ee63c7daaf486a
boost-tokenizer bd2aa9dfa30f5d6deb3107a3f850085dc08b2478
boost-type-index 1abd292c37cbbee24d96674326acee9bd15178c6
boost-vcpkg-helpers 2d54b6d10f1dc434d4c1ffdf6ffecb250df51316
boost-winapi 91c0d52f9bf61898b9e6aaaebd7730bf4d8585bb
cmake 3.20.2
features core
portfile.cmake da5742964c0312fe31588c94d156135fcfda1cef
ports.cmake bd8d6584852d3c42c455b6794fc31eb6a4f0914a
post_build_checks 2
powershell 7.1.3
triplet x86-windows
triplet_abi 4c64db251cbf53c76a606595b52416ec991ab5bb-a1c0eabb0c5177b6a8fb97a58ae398880c47b352-d8c1982fc772c9b47c816273e96145953dc4d7ea
vcpkg.json eaa1ca55a15bbd6e06f3a38fcffcfb13a0902e83
vcpkg_from_git 99e83c6ffac2dd07afaf73d795988ca5dec2dc8b
vcpkg_from_github a9dd1453b8873c9702731c6c36e79fb0ab6ae486
