boost-array 0fe5755ba497a0825fc052599ad9ba06200f56cc
boost-assert f0164d81d34d5445011c42ba83338e0a994480de
boost-concept-check 213ae8b7fab2ebc085daa4c30686a4b1ef9399ba
boost-config 20cb5b4d1e7456b3d2a769884917011c84bf3510
boost-container-hash 655e70dba9df526383dc31c2807e4ccb934102a4
boost-conversion 6cb6cdc352697482cf2133ce869ba09c6b2c51b6
boost-core 5b621ead1d346332e9fb85a7c3d9a427a42dd19e
boost-detail 6f4d9b93ca309167fb6dc5f70a1f8ffd5da2442f
boost-integer 6b8d4d12a8277a3c683643397afa14a29e2de1cd
boost-iterator fddea7c600d3de2090f1e176e21b6a1ee8cd1511
boost-mpl 65735cad3dbedf8253842731ec931d149995df8c
boost-numeric-conversion 813b598307a8e5631bb70040e3e4551885530195
boost-optional 05f0fbf3d961680d3beeceaae32af5968d3a62f0
boost-preprocessor 37b102307036e11c67a31b1e33f4251cf64c80d2
boost-regex f4135aab1d34ad04fb708804614a4dd894b6cd6f
boost-static-assert 9e3b351365925913118fbf9d59c082033cd3392b
boost-tuple 3643db0af4570873eb3a192829ff1b289069a048
boost-type-traits 66409d9ca8e2e00de09f6d288d854ff5e8e31d58
boost-utility b6ff9991bc3dcf6748fc4136c4ad1c6d993d27d4
boost-vcpkg-helpers 2d54b6d10f1dc434d4c1ffdf6ffecb250df51316
cmake 3.20.2
features core
portfile.cmake e1218a1a00029cea7531bf24991f42cc1e5b46a7
ports.cmake bd8d6584852d3c42c455b6794fc31eb6a4f0914a
post_build_checks 2
powershell 7.1.3
triplet x86-windows
triplet_abi 4c64db251cbf53c76a606595b52416ec991ab5bb-a1c0eabb0c5177b6a8fb97a58ae398880c47b352-d8c1982fc772c9b47c816273e96145953dc4d7ea
vcpkg.json 2809cac29f1b3267b9647b4adad04379f821b948
vcpkg_from_git 99e83c6ffac2dd07afaf73d795988ca5dec2dc8b
vcpkg_from_github a9dd1453b8873c9702731c6c36e79fb0ab6ae486
