boost-assert f0164d81d34d5445011c42ba83338e0a994480de
boost-build a27114355e362c0276e0289688573226dbdbf1ed
boost-config 20cb5b4d1e7456b3d2a769884917011c84bf3510
boost-detail 6f4d9b93ca309167fb6dc5f70a1f8ffd5da2442f
boost-fusion 9882310eed0ff85565b35a755e3ef80f2dbd2758
boost-iterator fddea7c600d3de2090f1e176e21b6a1ee8cd1511
boost-modular-build-helper f14e029d4056c0e90bfeb8c292ca361fb6bde022
boost-mp11 6ecbfe70295f55f84a4c84588a3758fee51863cf
boost-mpl 65735cad3dbedf8253842731ec931d149995df8c
boost-preprocessor 37b102307036e11c67a31b1e33f4251cf64c80d2
boost-smart-ptr 383b9a35fd0bfb02b53c2e9418ab8d65a1425fcf
boost-thread ecb2b763e171dc796ccd00dbe26b9bc41dad7fa2
boost-throw-exception 4d2d23bdb9e2ecb9531ea2c0c487af666626d37f
boost-type-traits 66409d9ca8e2e00de09f6d288d854ff5e8e31d58
boost-typeof 8e1eccb5d142b960a626a2092d60285a3b7575fb
boost-utility b6ff9991bc3dcf6748fc4136c4ad1c6d993d27d4
boost-vcpkg-helpers 2d54b6d10f1dc434d4c1ffdf6ffecb250df51316
boost-vmd 584f3924c8f3e43a81a33532d1ef29dce936ea03
cmake 3.20.2
features core
portfile.cmake a5ad93b42167843ba4d4ffbe6be4d6f782c08da2
ports.cmake bd8d6584852d3c42c455b6794fc31eb6a4f0914a
post_build_checks 2
powershell 7.1.3
triplet x86-windows
triplet_abi 4c64db251cbf53c76a606595b52416ec991ab5bb-a1c0eabb0c5177b6a8fb97a58ae398880c47b352-d8c1982fc772c9b47c816273e96145953dc4d7ea
vcpkg.json 4276ff39fcff15bbcde367725d3ef9bbb584b609
vcpkg_from_git 99e83c6ffac2dd07afaf73d795988ca5dec2dc8b
vcpkg_from_github a9dd1453b8873c9702731c6c36e79fb0ab6ae486
