boost-array 0fe5755ba497a0825fc052599ad9ba06200f56cc
boost-assert f0164d81d34d5445011c42ba83338e0a994480de
boost-circular-buffer 0c4b02cbe945273f579d185d7510441ac1ad52a4
boost-concept-check 213ae8b7fab2ebc085daa4c30686a4b1ef9399ba
boost-config 20cb5b4d1e7456b3d2a769884917011c84bf3510
boost-core 5b621ead1d346332e9fb85a7c3d9a427a42dd19e
boost-detail 6f4d9b93ca309167fb6dc5f70a1f8ffd5da2442f
boost-fusion 9882310eed0ff85565b35a755e3ef80f2dbd2758
boost-interval 1446d87eb5b7f5a94b56ae2d229c5e3c593e19b3
boost-iterator fddea7c600d3de2090f1e176e21b6a1ee8cd1511
boost-mpl 65735cad3dbedf8253842731ec931d149995df8c
boost-numeric-conversion 813b598307a8e5631bb70040e3e4551885530195
boost-odeint 51ba6d963ce4cdacbdacb99cc03cf724ee522323
boost-parameter 1629a208d7811508f1161a38dbe8219c95f70e4f
boost-preprocessor 37b102307036e11c67a31b1e33f4251cf64c80d2
boost-range e92397b37298c9ee70634b184df677d61609ce6d
boost-serialization 32c1568f02c7ac9da8f34c29823c0914c3e6fee8
boost-static-assert 9e3b351365925913118fbf9d59c082033cd3392b
boost-throw-exception 4d2d23bdb9e2ecb9531ea2c0c487af666626d37f
boost-tuple 3643db0af4570873eb3a192829ff1b289069a048
boost-type-traits 66409d9ca8e2e00de09f6d288d854ff5e8e31d58
boost-typeof 8e1eccb5d142b960a626a2092d60285a3b7575fb
boost-ublas 9624b9a0080fb00b73bc95c4919dd2d417f6e82c
boost-utility b6ff9991bc3dcf6748fc4136c4ad1c6d993d27d4
boost-vcpkg-helpers 2d54b6d10f1dc434d4c1ffdf6ffecb250df51316
cmake 3.20.2
features core
portfile.cmake 63ce00b7285dde00189a889d1b31a828e106be87
ports.cmake bd8d6584852d3c42c455b6794fc31eb6a4f0914a
post_build_checks 2
powershell 7.1.3
triplet x86-windows
triplet_abi 4c64db251cbf53c76a606595b52416ec991ab5bb-a1c0eabb0c5177b6a8fb97a58ae398880c47b352-d8c1982fc772c9b47c816273e96145953dc4d7ea
vcpkg.json 79a91d4b9cd1d91d1d1d7331c7026b430b2646e0
vcpkg_from_git 99e83c6ffac2dd07afaf73d795988ca5dec2dc8b
vcpkg_from_github a9dd1453b8873c9702731c6c36e79fb0ab6ae486
